1 10 20
100 200 125
201 210 89
900 1000 174
1111 2222 182
1111 11111 268
10 1 20
200 100 125
210 201 89
1000 900 174
2222 1111 182
11111 1111 268
1 999999 525
999999 1 525
888888 999999 507
1234 9876 262
238 238 35
1 1 1
100 100000 351
700 700000 509
19283 59483 340
123 123123 354
123123 123 354
900000 777777 525
983 83838 351
9324 23949 282
923895 2348 525
9999 23232 279
232 23200 279
3747 34818 311
5555 88888 351
3434 34340 311
82348 9239 351
48418 14772 324
9349 288222 443
88528 48284 351
94928 238242 443
9283 2382 262
7247 72777 340
823842 384282 509
999999 999999 259
3684 5848 238
74584 848548 525
43848 888888 525
239285 534388 470
1 555555 470
9384 29374 308
8884 84848 351
2888 2888 49
85758 85758 77
12321 98789 351
3284 239489 443
57488 484884 449
85838 385835 443
959 39493 324
234838 28348 443
85823 3848 351
929292 992284 507
38284 28348 324
49591 19239 324
24583 382488 443
218951 239528 443
4283 328582 443
2394 28394 308
4588 28888 308
32283 34838 311
259359 329593 407
888 88888 351
3482 23848 282
4935 198492 383
34858 348588 443
124824 124888 212
28384 32848 285
92459 239599 443
84888 888888 525
429599 787878 509
328438 488588 449
2347 843858 525
2 999888 525
9988 88555 351
95 439583 449
934829 384283 525
4888 488888 449
38483 384834 443
39458 943855 525
66666 77777 351
6666 7777 257
56897 348598 443
976487 978654 383
84899 238488 443
9599 10000 242
7000 80000 351
8000 92139 351
9439 39494 324
6585 7000 257
6000 7848 262
203940 384834 443
1949 2943 217
498593 888888 525
94924 942942 525
48 4884 238
43949 2 324
348 23 144
4838 3 238
9593 3 262
43 9349 262
1 4444 238
3942 1123 238
