1 10 20
100 200 125
201 210 89
133 3200 217
1400 3800 238
999000 999999 396
2 9 20
999998 999999 259
999999 999999 259
500234 432992 444
1500 1500 48
999 1001 143
939483 200493 525
1 999999 525
999999 1 525
300 403030 443
53002 29343 340
34200 29343 285
4302 20000 279
30291 390430 443
403200 859999 525
234 2 128
2 430300 449
1 2 2
2 1 2
3 493992 449
2093 94499 351
843196 793259 525
64745 937757 525
109363 654027 509
630850 404027 509
412155 470659 444
430296 530239 470
652286 814574 504
883550 412557 525
751704 266402 509
438849 594402 470
773395 400677 509
125640 922606 525
536525 94768 470
305591 157426 443
606062 561450 434
139941 356835 443
200524 411387 449
219684 666060 509
326006 889714 525
549004 160314 470
827260 962819 525
437839 651788 509
445424 173620 449
918899 909462 476
620774 68432 470
384309 27010 443
848707 558848 525
920711 231496 525
913574 746030 525
344668 588935 470
389572 127983 443
776473 694902 504
104231 903538 525
850194 132898 525
619106 67028 470
846151 906318 445
391099 305663 441
246623 40330 443
284990 348465 441
278386 568208 470
355825 774505 509
69570 508345 449
672843 132720 509
355262 881234 525
937778 744709 525
340693 433297 449
194101 665844 509
882597 327501 525
24432 305852 443
345280 258678 407
861102 796828 525
253384 296938 407
408832 939800 525
716645 779242 468
528148 112893 470
856232 787918 525
576708 77477 470
483639 881683 525
132626 613837 470
299340 425547 449
202026 849721 525
474898 806318 509
245041 109236 443
682139 387307 509
683404 286874 509
329265 140307 443
929005 708218 525
821511 200492 509
365748 283271 441
834653 207512 509
208092 696129 509
993984 966924 458
299166 645766 509
591838 7875 470
