1 10 20
100 200 125
201 210 89
900 1000 174
1500 12 182
13 14 18
123 900 179
150 151 16
100 100 26
9000 9005 141
300 350 144
400 450 134
500 550 137
600 650 145
700 750 171
350 300 144
1000 10000 262
5000 50000 324
99 1 119
100 100 26
69 70 15
12 9000 262
9001 9000 141
1012 17 179
100 600 144
1 8500 262
2 5 8
17 27 112
89 88 31
229 496 144
208 9967 262
2 73 116
397 998 179
208 47 125
8927 2998 262
2897 28 209
1003 175 179
129 2754 209
924 37 179
2655 2138 209
185 3826 238
2965 293 217
235 27 128
1888 999999 525
3165 126 217
12457 28658 308
1465 12 182
12846 2877 268
124 463 144
1262 46 182
34 8727 262
28 6894 262
286 1703 182
13850 1970 276
3160 1111 217
18460 1143 279
836 9265 262
56489 16510 340
811 5168 238
156 4378 238
78375 75333 351
398 283 144
283 1765 182
1990 1886 175
173 1876 182
909 909 16
831 1936 182
1918 91016 351
109374 198360 383
198075 908976 525
289738 2877 443
3292 298 217
28 26 112
27 267 128
38 57 113
376 28 144
28 67 113
95 40 116
35 47 110
18 38 112
35 58 113
25 46 112
14 6598 262
245 945 179
74 93 111
72 84 116
20 943 179
652 93 145
823 63 171
8732 83 262
11289 93 268
933785 287 525
9740 298 262
83265 270 351
2385 894 183
29 30 19
669 29 145
92 62 116
92 70 116
712 19 171
92 2690 209
2189 26 182
92 498 144
63 27 113
297543 91639 443
